tests/up_tb.vcd
$date
	Mon Jan 29 01:17:56 2024
$end
$version
	Icarus Verilog
$end
$timescale
	1ps
$end
$scope module up_tb $end
$var wire 16 ! a0 [15:0] $end
$var wire 1 " d0 $end
$var wire 1 # d1 $end
$var wire 1 $ d2 $end
$var wire 1 % d3 $end
$var wire 1 & max $end
$var wire 1 ' motor $end
$var reg 1 ( clk $end
$var reg 16 ) pressure [15:0] $end
$var reg 1 * rst $end
$var reg 1 + start $end
$var reg 1 , stop $end
$var integer 32 - i [31:0] $end
$scope module uProcessor $end
$var wire 16 . a0_io [15:0] $end
$var wire 1 ( clk_in $end
$var wire 1 " d0_io $end
$var wire 1 # d1_io $end
$var wire 1 $ d2_io $end
$var wire 1 % d3_io $end
$var wire 1 * rst_in $end
$var wire 1 / stack_push $end
$var wire 1 0 stack_pop $end
$var wire 1 1 stack_full $end
$var wire 1 2 stack_empty $end
$var wire 1 3 rst_id $end
$var wire 24 4 rom_data [23:0] $end
$var wire 16 5 rf_io_out [15:0] $end
$var wire 1 6 rf_en $end
$var wire 8 7 ret_addr [7:0] $end
$var wire 16 8 reg_out [15:0] $end
$var wire 1 9 r_or_w $end
$var wire 8 : pc_bits [7:0] $end
$var wire 8 ; op [7:0] $end
$var wire 1 < ldi $end
$var wire 1 = jmp_en $end
$var wire 16 > io_out [15:0] $end
$var wire 1 ? io_en $end
$var wire 1 @ alu_overflow $end
$var wire 16 A alu_out [15:0] $end
$var wire 1 B acu_zero $end
$var wire 16 C acu_rom_out [15:0] $end
$var wire 16 D acu_out [15:0] $end
$var wire 1 E acu_en $end
$var reg 16 F out [15:0] $end
$var reg 1 G rst $end
$scope module Accumulator $end
$var wire 1 ( clk $end
$var wire 1 B zero $end
$var wire 16 H in [15:0] $end
$var wire 1 E ce $end
$var parameter 32 I WIDTH $end
$var reg 16 J out [15:0] $end
$upscope $end
$scope module Alu $end
$var wire 8 K op [7:0] $end
$var wire 16 L in2 [15:0] $end
$var wire 16 M in1 [15:0] $end
$var parameter 32 N WIDTH $end
$var reg 16 O out [15:0] $end
$var reg 1 @ overflow $end
$upscope $end
$scope module InstructionDecoder $end
$var wire 1 B acu_zero $end
$var wire 8 P instr [7:0] $end
$var wire 2 Q stack_flags [1:0] $end
$var reg 1 E acu_en $end
$var reg 1 ? io_en $end
$var reg 1 = jmp_en $end
$var reg 1 < ldi $end
$var reg 8 R op [7:0] $end
$var reg 1 9 r_or_w $end
$var reg 1 6 rf_en $end
$var reg 1 3 rst $end
$var reg 2 S stack_control [1:0] $end
$upscope $end
$scope module Mux_acu_rom $end
$var wire 16 T in1 [15:0] $end
$var wire 16 U in2 [15:0] $end
$var wire 1 < sel $end
$var parameter 32 V WIDTH $end
$var reg 16 W out [15:0] $end
$upscope $end
$scope module Mux_rf_io $end
$var wire 1 ? sel $end
$var wire 16 X in2 [15:0] $end
$var wire 16 Y in1 [15:0] $end
$var parameter 32 Z WIDTH $end
$var reg 16 [ out [15:0] $end
$upscope $end
$scope module Plc_IO_Ports $end
$var wire 16 \ a0_io [15:0] $end
$var wire 1 ( clk $end
$var wire 1 " d0_io $end
$var wire 1 # d1_io $end
$var wire 1 $ d2_io $end
$var wire 1 % d3_io $end
$var wire 16 ] data_in [15:0] $end
$var wire 1 ^ direction $end
$var wire 1 ? en $end
$var wire 4 _ io_addr [3:0] $end
$var wire 1 9 r_or_w $end
$var wire 1 ` d3_out $end
$var wire 1 a d2_out $end
$var wire 1 b d1_out $end
$var wire 1 c d0_out $end
$var wire 16 d a0_out [15:0] $end
$var parameter 32 e BITS $end
$var reg 16 f data_out [15:0] $end
$scope module A0 $end
$var wire 1 ( clk $end
$var wire 16 g data_in [15:0] $end
$var wire 16 h data_out [15:0] $end
$var wire 1 ^ direction $end
$var wire 1 i en $end
$var wire 16 j io_port [15:0] $end
$var parameter 32 k BITS $end
$var reg 16 l a [15:0] $end
$var reg 16 m b [15:0] $end
$upscope $end
$scope module D0 $end
$var wire 1 ( clk $end
$var wire 1 n data_in $end
$var wire 1 c data_out $end
$var wire 1 ^ direction $end
$var wire 1 o en $end
$var wire 1 " io_port $end
$var reg 1 p a $end
$var reg 1 q b $end
$upscope $end
$scope module D1 $end
$var wire 1 ( clk $end
$var wire 1 r data_in $end
$var wire 1 b data_out $end
$var wire 1 ^ direction $end
$var wire 1 s en $end
$var wire 1 # io_port $end
$var reg 1 t a $end
$var reg 1 u b $end
$upscope $end
$scope module D2 $end
$var wire 1 ( clk $end
$var wire 1 v data_in $end
$var wire 1 a data_out $end
$var wire 1 ^ direction $end
$var wire 1 w en $end
$var wire 1 $ io_port $end
$var reg 1 x a $end
$var reg 1 y b $end
$upscope $end
$scope module D3 $end
$var wire 1 ( clk $end
$var wire 1 z data_in $end
$var wire 1 ` data_out $end
$var wire 1 ^ direction $end
$var wire 1 { en $end
$var wire 1 % io_port $end
$var reg 1 | a $end
$var reg 1 } b $end
$upscope $end
$upscope $end
$scope module ProgramCounter $end
$var wire 1 ( clk $end
$var wire 8 ~ jmp_addr [7:0] $end
$var wire 1 = jmp_en $end
$var wire 1 G rst $end
$var reg 8 !" pc [7:0] $end
$upscope $end
$scope module Registers $end
$var wire 1 ( clk $end
$var wire 1 6 en $end
$var wire 16 "" in [15:0] $end
$var wire 1 9 r_or_w $end
$var wire 4 #" reg_addr [3:0] $end
$var parameter 32 $" REG_ADDR_BITS $end
$var parameter 32 %" WIDTH $end
$var reg 16 &" out [15:0] $end
$upscope $end
$scope module Rom $end
$var wire 8 '" addr [7:0] $end
$var wire 1 ( clk $end
$var parameter 32 (" RAM_ADDR_BITS $end
$var parameter 32 )" RAM_WORD_WIDTH $end
$var reg 24 *" data [23:0] $end
$upscope $end
$scope module Stack $end
$var wire 1 ( clk $end
$var wire 8 +" data_in [7:0] $end
$var wire 1 0 pop $end
$var wire 1 / push $end
$var wire 1 G rst $end
$var wire 8 ," data_out [7:0] $end
$var parameter 32 -" DEPTH $end
$var parameter 32 ." WIDTH $end
$var reg 1 2 empty $end
$var reg 1 1 full $end
$var reg 3 /" top [2:0] $end
$upscope $end
$upscope $end
$upscope $end
$enddefinitions $end
$comment Show the parameter values. $end
$dumpall
b1000 ."
b1000 -"
b11000 )"
b1000 ("
b10000 %"
b100 $"
b10000 k
b10000 e
b10000 Z
b10000 V
b10000 N
b10000 I
$end
#0
$dumpvars
b0 /"
bz ,"
b0 +"
b101000000000000000000 *"
b0 '"
bz &"
bz #"
b0 ""
b0 !"
bz ~
z}
z|
0{
0z
zy
zx
0w
0v
zu
zt
0s
0r
zq
zp
0o
0n
bz m
bz l
bx j
0i
bz h
b0 g
bz f
bz d
zc
zb
za
z`
bz _
0^
b0 ]
bx \
bz [
bz Y
bz X
b0 W
b0 U
b0 T
b0 S
b10100 R
b1 Q
b10100 P
bx O
b0 M
bz L
b10100 K
b0 J
bx H
0G
b0 F
0E
b0 D
b0 C
1B
bx A
x@
0?
bz >
0=
0<
b10100 ;
b0 :
09
bz 8
bz 7
06
bz 5
b101000000000000000000 4
03
12
01
00
0/
bx .
b0 -
0,
0+
0*
b1011111111111111 )
1(
z'
z&
x%
x$
x#
x"
bx !
$end
#1000
b1 :
b1 !"
b1 '"
b1 +"
b1 -
0(
#2000
b10 -
1(
#3000
b0 A
b0 H
b0 O
1E
1<
b10011 ;
b10011 K
b10011 R
b10011 P
b100110000000000000000 4
b100110000000000000000 *"
b10 :
b10 !"
b10 '"
b10 +"
b11 -
0(
#4000
b100 -
1(
#5000
0`
0}
b0 5
b0 L
b0 [
0|
b0 >
b0 X
b0 f
0%
1{
b100 _
b0 C
b0 M
b0 W
0E
0<
1?
1^
19
b10010 ;
b10010 K
b10010 R
b100 U
b10010 P
b100100000000000000100 4
b100100000000000000100 *"
b11 :
b11 !"
b11 '"
b11 +"
b101 -
0(
#6000
b110 -
1(
#7000
0a
0y
b0 5
b0 L
b0 [
0x
b0 >
b0 X
b0 f
0$
1w
0{
b11 _
b11 U
b100100000000000000011 4
b100100000000000000011 *"
b100 :
b100 !"
b100 '"
b100 +"
b111 -
0(
#8000
b1000 -
1(
#9000
bz 5
bz L
bz [
bz >
bz X
bz f
b100 #"
16
0?
b10000 ;
b10000 K
b10000 R
0w
0{
bz _
b100 U
b10000 P
b100000000000000000100 4
b100000000000000000100 *"
b101 :
b101 !"
b101 '"
b101 +"
b1001 -
0(
#10000
b1010 -
1(
#11000
b110 #"
b110 U
b100000000000000000110 4
b100000000000000000110 *"
b110 :
b110 !"
b110 '"
b110 +"
b1011 -
0(
#12000
b1100 -
1(
#13000
b11 A
b11 H
b11 O
b11 C
b11 M
b11 W
1E
1<
06
0^
09
b10011 ;
b10011 K
b10011 R
bz #"
b11 U
b10011 P
b100110000000000000011 4
b100110000000000000011 *"
b111 :
b111 !"
b111 '"
b111 +"
b1101 -
0(
#14000
b1110 -
1(
#15000
b1000 #"
b11 C
b11 M
b11 W
0E
0<
16
1^
19
b10000 ;
b10000 K
b10000 R
b1000 U
b10000 P
b11 F
b100000000000000001000 4
b100000000000000001000 *"
0B
1n
1r
1v
1z
b11 D
b11 J
b11 T
b11 ]
b11 g
b11 ""
b1000 :
b1000 !"
b1000 '"
b1000 +"
b1111 -
0(
#16000
b10000 -
1(
#17000
b101 A
b101 H
b101 O
b101 C
b101 M
b101 W
1E
1<
06
0^
09
b10011 ;
b10011 K
b10011 R
bz #"
b101 U
b10011 P
b100110000000000000101 4
b100110000000000000101 *"
b1001 :
b1001 !"
b1001 '"
b1001 +"
b10001 -
0(
#18000
b10010 -
1(
#19000
b1010 #"
b101 C
b101 M
b101 W
0E
0<
16
1^
19
b10000 ;
b10000 K
b10000 R
b1010 U
b10000 P
b101 F
b100000000000000001010 4
b100000000000000001010 *"
b101 D
b101 J
b101 T
b101 ]
b101 g
b101 ""
b1010 :
b1010 !"
b1010 '"
b1010 +"
b10011 -
0(
#20000
b10100 -
1(
#21000
b1101 ~
1E
06
0^
09
1=
b1011 ;
b1011 K
b1011 R
bz #"
b1101 U
b1011 P
b10110000000000001101 4
b10110000000000001101 *"
b1011 :
b1011 !"
b1011 '"
b1011 +"
b10101 -
0(
#22000
b10110 -
1(
#23000
1/
0E
b10 S
b1101 ;
b1101 K
b1101 R
b10100 ~
b10100 U
b1101 P
b11010000000000010100 4
b11010000000000010100 *"
b1101 :
b1101 !"
b1101 '"
b1101 +"
b10111 -
0(
#24000
b11000 -
1(
#25000
b101010 ~
b101010 U
b11010000000000101010 4
b11010000000000101010 *"
b1101 7
b1101 ,"
b10100 :
b10100 !"
b10100 '"
b10100 +"
b0 Q
02
b1 /"
b11001 -
0(
#26000
b11010 -
1(
#27000
b1011111111111111 5
b1011111111111111 L
b1011111111111111 [
b1011111111111111 >
b1011111111111111 X
b1011111111111111 f
b101 l
b1011111111111111 d
b1011111111111111 h
b1011111111111111 m
b1011111111111111 A
b1011111111111111 H
b1011111111111111 O
b1011111111111111 !
b1011111111111111 .
b1011111111111111 \
b1011111111111111 j
1i
b0 _
0/
1E
1?
0=
b0 S
b10001 ;
b10001 K
b10001 R
bz ~
b0 U
b10001 P
b100010000000000000000 4
b100010000000000000000 *"
b10100 7
b10100 ,"
b101010 :
b101010 !"
b101010 '"
b101010 +"
b10 /"
b11011 -
0(
#28000
b11100 -
1(
#29000
bz 5
bz L
bz [
bz >
bz X
bz f
b0 #"
0i
bz _
0E
16
0?
1^
19
b10000 ;
b10000 K
b10000 R
b10000 P
b100000000000000000000 4
b100000000000000000000 *"
b1011111111111111 C
b1011111111111111 M
b1011111111111111 W
b1011111111111111 l
b1011111111111111 F
b101011 :
b101011 !"
b101011 '"
b101011 +"
b1011111111111111 D
b1011111111111111 J
b1011111111111111 T
b1011111111111111 ]
b1011111111111111 g
b1011111111111111 ""
b11101 -
0(
#30000
b11110 -
1(
#31000
b1011111111111101 A
b1011111111111101 H
b1011111111111101 O
b1011111111111101 C
b1011111111111101 M
b1011111111111101 W
1E
1<
06
0^
09
b10011 ;
b10011 K
b10011 R
bz #"
b1011111111111101 U
b10011 P
b100111011111111111101 4
b100111011111111111101 *"
b101100 :
b101100 !"
b101100 '"
b101100 +"
b11111 -
0(
#32000
b100000 -
1(
#33000
b1011111111111111 5
b1011111111111111 L
b1011111111111111 [
b1011111111111111 8
b1011111111111111 Y
b1011111111111111 &"
b0 A
b0 H
b0 O
b0 #"
b1011111111111101 C
b1011111111111101 M
b1011111111111101 W
0<
16
b1010 ;
b1010 K
b1010 R
b0 U
b1010 P
b10100000000000000000 4
b10100000000000000000 *"
b1011111111111101 F
b101101 :
b101101 !"
b101101 '"
b101101 +"
b1011111111111101 D
b1011111111111101 J
b1011111111111101 T
b1011111111111101 ]
b1011111111111101 g
b1011111111111101 ""
b100001 -
0(
#34000
b100010 -
1(
#35000
bz 5
bz L
bz [
bz 8
bz Y
bz &"
b1 A
b1 H
b1 O
bz #"
06
b0 ;
b0 K
b0 R
b0 P
b0 C
b0 M
b0 W
b0 F
b0 4
b0 *"
1B
0n
0r
0v
0z
b0 D
b0 J
b0 T
b0 ]
b0 g
b0 ""
b101110 :
b101110 !"
b101110 '"
b101110 +"
b100011 -
0(
#36000
b100100 -
1(
#37000
b1 #"
0E
16
1^
19
b10000 ;
b10000 K
b10000 R
b0 A
b0 H
b0 O
b1 U
b10000 P
b100000000000000000001 4
b100000000000000000001 *"
b1 C
b1 M
b1 W
b1 F
0B
1n
1r
1v
1z
b101111 :
b101111 !"
b101111 '"
b101111 +"
b1 D
b1 J
b1 T
b1 ]
b1 g
b1 ""
b100101 -
0(
#38000
b100110 -
1(
#39000
b10101 ~
10
06
0^
09
1=
b1 S
b1110 ;
b1110 K
b1110 R
bz #"
b0 U
b1110 P
b11100000000000000000 4
b11100000000000000000 *"
b110000 :
b110000 !"
b110000 '"
b110000 +"
b100111 -
0(
#40000
b101000 -
1(
#41000
b0 5
b0 L
b0 [
1t
0b
0u
b0 >
b0 X
b0 f
b0 A
b0 H
b0 O
0#
1s
b10 _
00
1E
1?
0=
b0 S
b10001 ;
b10001 K
b10001 R
b10 U
b10001 P
b100010000000000000010 4
b100010000000000000010 *"
b10101 :
b10101 !"
b10101 '"
b10101 +"
bz ~
b1101 7
b1101 ,"
b1 /"
b101001 -
0(
#42000
b101010 -
1(
#43000
b1 A
b1 H
b1 O
b1 8
b1 Y
b1 &"
b1 5
b1 L
b1 [
b1 #"
0p
0c
0q
bz >
bz X
bz f
16
0?
b10 ;
b10 K
b10 R
0"
0o
0s
bz _
b1 U
b10 P
0t
b0 C
b0 M
b0 W
b0 F
b100000000000000001 4
b100000000000000001 *"
1B
0n
0r
0v
0z
b0 D
b0 J
b0 T
b0 ]
b0 g
b0 ""
b10110 :
b10110 !"
b10110 '"
b10110 +"
b101011 -
0(
#44000
b101100 -
1(
#45000
bz 5
bz L
bz [
bz 8
bz Y
bz &"
0E
1^
19
b10000 ;
b10000 K
b10000 R
b10 #"
b10 U
b10000 P
b100000000000000000010 4
b100000000000000000010 *"
b1 C
b1 M
b1 W
b1 F
0B
1n
1r
1v
1z
b10111 :
b10111 !"
b10111 '"
b10111 +"
b1 D
b1 J
b1 T
b1 ]
b1 g
b1 ""
b101101 -
0(
#46000
b101110 -
1(
#47000
b1 5
b1 L
b1 [
b1 8
b1 Y
b1 &"
b1 A
b1 H
b1 O
1E
0^
09
b1111 ;
b1111 K
b1111 R
b1000 #"
b1000 U
b1111 P
b11110000000000001000 4
b11110000000000001000 *"
b11000 :
b11000 !"
b11000 '"
b11000 +"
b101111 -
0(
#48000
b110000 -
1(
#49000
bz 5
bz L
bz [
bz 8
bz Y
bz &"
b0 A
b0 H
b0 O
06
b0 ;
b0 K
b0 R
bz #"
b0 U
b0 P
b0 4
b0 *"
b11001 :
b11001 !"
b11001 '"
b11001 +"
b110001 -
0(
#50000
b110010 -
1(
#51000
b1 5
b1 L
b1 [
b1 8
b1 Y
b1 &"
b10 #"
16
b10 ;
b10 K
b10 R
b1 A
b1 H
b1 O
b10 U
b10 P
b0 C
b0 M
b0 W
b0 F
b100000000000000010 4
b100000000000000010 *"
1B
0n
0r
0v
0z
b0 D
b0 J
b0 T
b0 ]
b0 g
b0 ""
b11010 :
b11010 !"
b11010 '"
b11010 +"
b110011 -
0(
#52000
b110100 -
1(
#53000
bz 5
bz L
bz [
bz 8
bz Y
bz &"
0E
1^
19
b10000 ;
b10000 K
b10000 R
b10000 P
b100000000000000000010 4
b100000000000000000010 *"
b1 C
b1 M
b1 W
b1 F
0B
1n
1r
1v
1z
b11011 :
b11011 !"
b11011 '"
b11011 +"
b1 D
b1 J
b1 T
b1 ]
b1 g
b1 ""
b110101 -
0(
#54000
b110110 -
1(
#55000
b11110 ~
06
0^
09
1=
b1100 ;
b1100 K
b1100 R
bz #"
b11110 U
b1100 P
b11000000000000011110 4
b11000000000000011110 *"
b11100 :
b11100 !"
b11100 '"
b11100 +"
b110111 -
0(
#56000
b111000 -
1(
#57000
b0 A
b0 H
b0 O
b0 C
b0 M
b0 W
1E
1<
0=
b10011 ;
b10011 K
b10011 R
bz ~
b0 U
b10011 P
b100110000000000000000 4
b100110000000000000000 *"
b11110 :
b11110 !"
b11110 '"
b11110 +"
b111001 -
0(
#58000
b111010 -
1(
#59000
b0 5
b0 L
b0 [
b0 >
b0 X
b0 f
1w
b11 _
b0 C
b0 M
b0 W
0E
0<
1?
1^
19
b10010 ;
b10010 K
b10010 R
b11 U
b10010 P
b0 F
b100100000000000000011 4
b100100000000000000011 *"
1B
0n
0r
0v
0z
b0 D
b0 J
b0 T
b0 ]
b0 g
b0 ""
b11111 :
b11111 !"
b11111 '"
b11111 +"
b111011 -
0(
#60000
b111100 -
1(
#61000
bz 5
bz L
bz [
b1110 ~
10
b0 l
bz >
bz X
bz f
0?
0^
09
1=
b1 S
b1110 ;
b1110 K
b1110 R
0i
0w
bz _
b0 U
b1110 P
b11100000000000000000 4
b11100000000000000000 *"
b100000 :
b100000 !"
b100000 '"
b100000 +"
b111101 -
0(
#62000
b111110 -
1(
#63000
1/
b1101 ;
b1101 K
b1101 R
b100001 U
b1101 P
00
b11010000000000100001 4
b11010000000000100001 *"
b10 S
b1110 :
b1110 !"
b1110 '"
b1110 +"
b1 Q
12
b100001 ~
bz 7
bz ,"
b0 /"
b111111 -
0(
#64000
b1000000 -
1(
#65000
b0 5
b0 L
b0 [
b0 >
b0 X
b0 f
b0 A
b0 H
b0 O
1o
b1 _
0/
1E
1?
0=
b0 S
b10001 ;
b10001 K
b10001 R
bz ~
b1 U
b10001 P
b100010000000000000001 4
b100010000000000000001 *"
b1110 7
b1110 ,"
b100001 :
b100001 !"
b100001 '"
b100001 +"
b0 Q
02
b1 /"
b1000001 -
0(
#66000
b1000010 -
1(
#67000
bz 5
bz L
bz [
bz >
bz X
bz f
b100 #"
z`
z}
0E
16
0?
1^
19
b10000 ;
b10000 K
b10000 R
z%
0o
0{
bz _
b100 U
b10000 P
b100000000000000000100 4
b100000000000000000100 *"
b100010 :
b100010 !"
b100010 '"
b100010 +"
b1000011 -
0(
#68000
b1000100 -
1(
#69000
06
0^
09
b10100 ;
b10100 K
b10100 R
bz #"
b0 U
b10100 P
b101000000000000000000 4
b101000000000000000000 *"
b100011 :
b100011 !"
b100011 '"
b100011 +"
b1000101 -
0(
#70000
b1000110 -
1(
#71000
b0 5
b0 L
b0 [
b0 8
b0 Y
b0 &"
b0 A
b0 H
b0 O
b110 #"
1E
16
b1 ;
b1 K
b1 R
b110 U
b1 P
b10000000000000110 4
b10000000000000110 *"
b100100 :
b100100 !"
b100100 '"
b100100 +"
b1000111 -
0(
#72000
b1001000 -
1(
#73000
b11 ;
b11 K
b11 R
b100 #"
b100 U
b11 P
b110000000000000100 4
b110000000000000100 *"
b100101 :
b100101 !"
b100101 '"
b100101 +"
b1001001 -
0(
#74000
b1001010 -
1(
#75000
bz 5
bz L
bz [
bz 8
bz Y
bz &"
0E
1^
19
b10000 ;
b10000 K
b10000 R
b11 #"
b11 U
b10000 P
b100000000000000000011 4
b100000000000000000011 *"
b100110 :
b100110 !"
b100110 '"
b100110 +"
b1001011 -
0(
#76000
b1001100 -
1(
#77000
b0 5
b0 L
b0 [
b0 8
b0 Y
b0 &"
b0 A
b0 H
b0 O
1E
0^
09
b1111 ;
b1111 K
b1111 R
b100 #"
b100 U
b1111 P
b11110000000000000100 4
b11110000000000000100 *"
b100111 :
b100111 !"
b100111 '"
b100111 +"
b1001101 -
0(
#78000
b1001110 -
1(
#79000
bz 5
bz L
bz [
bz 8
bz Y
bz &"
0E
1^
19
b10000 ;
b10000 K
b10000 R
b110 #"
b110 U
b10000 P
b100000000000000000110 4
b100000000000000000110 *"
b101000 :
b101000 !"
b101000 '"
b101000 +"
b1001111 -
0(
#80000
b1010000 -
1(
#81000
b1111 ~
10
06
0^
09
1=
b1 S
b1110 ;
b1110 K
b1110 R
bz #"
b0 U
b1110 P
b11100000000000000000 4
b11100000000000000000 *"
b101001 :
b101001 !"
b101001 '"
b101001 +"
b1010001 -
0(
#82000
b1010010 -
1(
#83000
b1 5
b1 L
b1 [
b1 8
b1 Y
b1 &"
b1 A
b1 H
b1 O
b10 #"
1E
16
0=
b1111 ;
b1111 K
b1111 R
b10 U
b1111 P
00
b11110000000000000010 4
b11110000000000000010 *"
b0 S
b1111 :
b1111 !"
b1111 '"
b1111 +"
b1 Q
12
bz ~
bz 7
bz ,"
b0 /"
b1010011 -
0(
#84000
b1010100 -
1(
#85000
bz 5
bz L
bz [
b0 A
b0 H
b0 O
bz 8
bz Y
bz &"
06
b0 ;
b0 K
b0 R
bz #"
b0 U
b0 P
b0 4
b0 *"
b1 C
b1 M
b1 W
b1 F
0B
1n
1r
1v
1z
b10000 :
b10000 !"
b10000 '"
b10000 +"
b1 D
b1 J
b1 T
b1 ]
b1 g
b1 ""
b1010101 -
0(
#86000
b1010110 -
1(
#87000
b0 5
b0 L
b0 [
b0 8
b0 Y
b0 &"
b11 #"
16
b11 ;
b11 K
b11 R
b0 A
b0 H
b0 O
b11 U
b11 P
b0 C
b0 M
b0 W
b0 F
b110000000000000011 4
b110000000000000011 *"
1B
0n
0r
0v
0z
b0 D
b0 J
b0 T
b0 ]
b0 g
b0 ""
b10001 :
b10001 !"
b10001 '"
b10001 +"
b1010111 -
0(
#88000
b1011000 -
1(
#89000
bz 5
bz L
bz [
bz 8
bz Y
bz &"
0E
06
b1100 ;
b1100 K
b1100 R
bz #"
b110001 U
b1100 P
b11000000000000110001 4
b11000000000000110001 *"
b10010 :
b10010 !"
b10010 '"
b10010 +"
b1011001 -
0(
#90000
b1011010 -
1(
#91000
b1101 ~
1E
1=
b1011 ;
b1011 K
b1011 R
b1101 U
b1011 P
b10110000000000001101 4
b10110000000000001101 *"
b10011 :
b10011 !"
b10011 '"
b10011 +"
b1011011 -
0(
#92000
b1011100 -
1(
#93000
1/
0E
b10 S
b1101 ;
b1101 K
b1101 R
b10100 ~
b10100 U
b1101 P
b11010000000000010100 4
b11010000000000010100 *"
b1101 :
b1101 !"
b1101 '"
b1101 +"
b1011101 -
0(
#94000
b1011110 -
1(
#95000
b101010 ~
b101010 U
b11010000000000101010 4
b11010000000000101010 *"
b1101 7
b1101 ,"
b10100 :
b10100 !"
b10100 '"
b10100 +"
b0 Q
02
b1 /"
b1011111 -
0(
#96000
b1100000 -
1(
#97000
b1011111111111111 5
b1011111111111111 L
b1011111111111111 [
b1011111111111111 >
b1011111111111111 X
b1011111111111111 f
b1011111111111111 A
b1011111111111111 H
b1011111111111111 O
1i
b0 _
0/
1E
1?
0=
b0 S
b10001 ;
b10001 K
b10001 R
bz ~
b0 U
b10001 P
b100010000000000000000 4
b100010000000000000000 *"
b10100 7
b10100 ,"
b101010 :
b101010 !"
b101010 '"
b101010 +"
b10 /"
b1100001 -
0(
#98000
b1100010 -
1(
#99000
bz 5
bz L
bz [
bz >
bz X
bz f
b0 #"
0i
bz _
0E
16
0?
1^
19
b10000 ;
b10000 K
b10000 R
b10000 P
b1011111111111111 C
b1011111111111111 M
b1011111111111111 W
b1011111111111111 l
b1011111111111111 F
b100000000000000000000 4
b100000000000000000000 *"
0B
1n
1r
1v
1z
b1011111111111111 D
b1011111111111111 J
b1011111111111111 T
b1011111111111111 ]
b1011111111111111 g
b1011111111111111 ""
b101011 :
b101011 !"
b101011 '"
b101011 +"
b1100011 -
0(
#100000
b1100100 -
1(
#101000
b1011111111111101 A
b1011111111111101 H
b1011111111111101 O
b1011111111111101 C
b1011111111111101 M
b1011111111111101 W
1E
1<
06
0^
09
b10011 ;
b10011 K
b10011 R
bz #"
b1011111111111101 U
b10011 P
b100111011111111111101 4
b100111011111111111101 *"
b101100 :
b101100 !"
b101100 '"
b101100 +"
b1100101 -
0(
#102000
b1100110 -
x"
1+
1(
#103000
b1011111111111111 5
b1011111111111111 L
b1011111111111111 [
b1011111111111111 8
b1011111111111111 Y
b1011111111111111 &"
b0 A
b0 H
b0 O
b0 #"
b1011111111111101 C
b1011111111111101 M
b1011111111111101 W
0<
16
b1010 ;
b1010 K
b1010 R
b0 U
b1010 P
b1011111111111101 F
b10100000000000000000 4
b10100000000000000000 *"
b1011111111111101 D
b1011111111111101 J
b1011111111111101 T
b1011111111111101 ]
b1011111111111101 g
b1011111111111101 ""
b101101 :
b101101 !"
b101101 '"
b101101 +"
b1100111 -
0(
#104000
b1101000 -
1(
#105000
bz 5
bz L
bz [
bz 8
bz Y
bz &"
b1 A
b1 H
b1 O
bz #"
06
b0 ;
b0 K
b0 R
b0 P
b0 4
b0 *"
b0 C
b0 M
b0 W
b0 F
1B
0n
0r
0v
0z
b101110 :
b101110 !"
b101110 '"
b101110 +"
b0 D
b0 J
b0 T
b0 ]
b0 g
b0 ""
b1101001 -
0(
#106000
b1101010 -
1(
#107000
b1 #"
0E
16
1^
19
b10000 ;
b10000 K
b10000 R
b0 A
b0 H
b0 O
b1 U
b10000 P
b1 C
b1 M
b1 W
b1 F
b100000000000000000001 4
b100000000000000000001 *"
0B
1n
1r
1v
1z
b1 D
b1 J
b1 T
b1 ]
b1 g
b1 ""
b101111 :
b101111 !"
b101111 '"
b101111 +"
b1101011 -
0(
#108000
b1101100 -
1(
#109000
b10101 ~
10
06
0^
09
1=
b1 S
b1110 ;
b1110 K
b1110 R
bz #"
b0 U
b1110 P
b11100000000000000000 4
b11100000000000000000 *"
b110000 :
b110000 !"
b110000 '"
b110000 +"
b1101101 -
0(
#110000
b1101110 -
1(
#111000
b0 5
b0 L
b0 [
1t
b0 >
b0 X
b0 f
b0 A
b0 H
b0 O
1s
b10 _
00
1E
1?
0=
b0 S
b10001 ;
b10001 K
b10001 R
b10 U
b10001 P
b100010000000000000010 4
b100010000000000000010 *"
b10101 :
b10101 !"
b10101 '"
b10101 +"
bz ~
b1101 7
b1101 ,"
b1 /"
b1101111 -
0(
#112000
b1110000 -
1(
#113000
b1 A
b1 H
b1 O
b1 8
b1 Y
b1 &"
b1 5
b1 L
b1 [
bz >
bz X
bz f
b1 #"
1c
1q
16
0?
b10 ;
b10 K
b10 R
1"
0o
0s
bz _
b1 U
b10 P
0t
b100000000000000001 4
b100000000000000001 *"
b0 C
b0 M
b0 W
b0 F
1B
0n
0r
0v
0z
b10110 :
b10110 !"
b10110 '"
b10110 +"
b0 D
b0 J
b0 T
b0 ]
b0 g
b0 ""
b1110001 -
0(
#114000
b1110010 -
1(
#115000
bz 5
bz L
bz [
bz 8
bz Y
bz &"
0E
1^
19
b10000 ;
b10000 K
b10000 R
b10 #"
b10 U
b10000 P
b1 C
b1 M
b1 W
b1 F
b100000000000000000010 4
b100000000000000000010 *"
0B
1n
1r
1v
1z
b1 D
b1 J
b1 T
b1 ]
b1 g
b1 ""
b10111 :
b10111 !"
b10111 '"
b10111 +"
b1110011 -
0(
#116000
b1110100 -
1(
#117000
b1 5
b1 L
b1 [
b1 8
b1 Y
b1 &"
b1 A
b1 H
b1 O
1E
0^
09
b1111 ;
b1111 K
b1111 R
b1000 #"
b1000 U
b1111 P
b11110000000000001000 4
b11110000000000001000 *"
b11000 :
b11000 !"
b11000 '"
b11000 +"
b1110101 -
0(
#118000
b1110110 -
1(
#119000
bz 5
bz L
bz [
bz 8
bz Y
bz &"
b0 A
b0 H
b0 O
06
b0 ;
b0 K
b0 R
bz #"
b0 U
b0 P
b0 4
b0 *"
b11001 :
b11001 !"
b11001 '"
b11001 +"
b1110111 -
0(
#120000
b1111000 -
1(
#121000
b1 5
b1 L
b1 [
b1 8
b1 Y
b1 &"
b10 #"
16
b10 ;
b10 K
b10 R
b1 A
b1 H
b1 O
b10 U
b10 P
b100000000000000010 4
b100000000000000010 *"
b0 C
b0 M
b0 W
b0 F
1B
0n
0r
0v
0z
b11010 :
b11010 !"
b11010 '"
b11010 +"
b0 D
b0 J
b0 T
b0 ]
b0 g
b0 ""
b1111001 -
0(
#122000
b1111010 -
1(
#123000
bz 5
bz L
bz [
bz 8
bz Y
bz &"
0E
1^
19
b10000 ;
b10000 K
b10000 R
b10000 P
b1 C
b1 M
b1 W
b1 F
b100000000000000000010 4
b100000000000000000010 *"
0B
1n
1r
1v
1z
b1 D
b1 J
b1 T
b1 ]
b1 g
b1 ""
b11011 :
b11011 !"
b11011 '"
b11011 +"
b1111011 -
0(
#124000
b1111100 -
1(
#125000
b11110 ~
06
0^
09
1=
b1100 ;
b1100 K
b1100 R
bz #"
b11110 U
b1100 P
b11000000000000011110 4
b11000000000000011110 *"
b11100 :
b11100 !"
b11100 '"
b11100 +"
b1111101 -
0(
#126000
b1111110 -
1(
